{ "matches": [
    {
      "lane": "JUNGLE",
      "gameId": 3640277606,
      "champion": 19,
      "platformId": "EUW1",
      "timestamp": 1527008538346,
      "queue": 400,
      "role": "NONE",
      "season": 11
    },
    {
      "lane": "JUNGLE",
      "gameId": 3637931419,
      "champion": 19,
      "platformId": "EUW1",
      "timestamp": 1526828308254,
      "queue": 400,
      "role": "NONE",
      "season": 11
    },
    {
      "lane": "BOTTOM",
      "gameId": 3636264293,
      "champion": 40,
      "platformId": "EUW1",
      "timestamp": 1526715870237,
      "queue": 400,
      "role": "DUO_SUPPORT",
      "season": 11
    },
    {
      "lane": "NONE",
      "gameId": 3636281533,
      "champion": 201,
      "platformId": "EUW1",
      "timestamp": 1526714833614,
      "queue": 400,
      "role": "DUO",
      "season": 11
    },
    {
      "lane": "BOTTOM",
      "gameId": 3514724735,
      "champion": 99,
      "platformId": "EUW1",
      "timestamp": 1517514622650,
      "queue": 420,
      "role": "DUO_SUPPORT",
      "season": 11
    },
    {
      "lane": "BOTTOM",
      "gameId": 3514419485,
      "champion": 57,
      "platformId": "EUW1",
      "timestamp": 1517498332153,
      "queue": 420,
      "role": "DUO",
      "season": 11
    },
    {
      "lane": "BOTTOM",
      "gameId": 3514369530,
      "champion": 40,
      "platformId": "EUW1",
      "timestamp": 1517495982326,
      "queue": 420,
      "role": "DUO_SUPPORT",
      "season": 11
    },
    {
      "lane": "BOTTOM",
      "gameId": 3514337396,
      "champion": 40,
      "platformId": "EUW1",
      "timestamp": 1517493199546,
      "queue": 420,
      "role": "DUO_SUPPORT",
      "season": 11
    },
    {
      "lane": "BOTTOM",
      "gameId": 3514028244,
      "champion": 40,
      "platformId": "EUW1",
      "timestamp": 1517480013292,
      "queue": 420,
      "role": "DUO_SUPPORT",
      "season": 11
    },
    {
      "lane": "BOTTOM",
      "gameId": 3512368520,
      "champion": 40,
      "platformId": "EUW1",
      "timestamp": 1517332216898,
      "queue": 420,
      "role": "DUO",
      "season": 11
    },
    {
      "lane": "BOTTOM",
      "gameId": 3511344177,
      "champion": 40,
      "platformId": "EUW1",
      "timestamp": 1517255977637,
      "queue": 420,
      "role": "DUO_SUPPORT",
      "season": 11
    },
    {
      "lane": "BOTTOM",
      "gameId": 3511301326,
      "champion": 40,
      "platformId": "EUW1",
      "timestamp": 1517253348407,
      "queue": 420,
      "role": "DUO_SUPPORT",
      "season": 11
    },
    {
      "lane": "BOTTOM",
      "gameId": 3510535298,
      "champion": 40,
      "platformId": "EUW1",
      "timestamp": 1517172544007,
      "queue": 420,
      "role": "DUO_SUPPORT",
      "season": 11
    },
    {
      "lane": "BOTTOM",
      "gameId": 3510477801,
      "champion": 40,
      "platformId": "EUW1",
      "timestamp": 1517170223898,
      "queue": 420,
      "role": "DUO_SUPPORT",
      "season": 11
    },
    {
      "lane": "BOTTOM",
      "gameId": 3510212596,
      "champion": 40,
      "platformId": "EUW1",
      "timestamp": 1517160374378,
      "queue": 420,
      "role": "DUO_SUPPORT",
      "season": 11
    },
    {
      "lane": "BOTTOM",
      "gameId": 3509975682,
      "champion": 40,
      "platformId": "EUW1",
      "timestamp": 1517158396723,
      "queue": 420,
      "role": "DUO_SUPPORT",
      "season": 11
    },
    {
      "lane": "BOTTOM",
      "gameId": 3509797946,
      "champion": 40,
      "platformId": "EUW1",
      "timestamp": 1517156093306,
      "queue": 420,
      "role": "DUO_SUPPORT",
      "season": 11
    },
    {
      "lane": "BOTTOM",
      "gameId": 3509766546,
      "champion": 40,
      "platformId": "EUW1",
      "timestamp": 1517154616085,
      "queue": 420,
      "role": "DUO_SUPPORT",
      "season": 11
    },
    {
      "lane": "BOTTOM",
      "gameId": 3506722857,
      "champion": 40,
      "platformId": "EUW1",
      "timestamp": 1516917897525,
      "queue": 420,
      "role": "DUO_SUPPORT",
      "season": 11
    },
    {
      "lane": "BOTTOM",
      "gameId": 3506654691,
      "champion": 40,
      "platformId": "EUW1",
      "timestamp": 1516915085775,
      "queue": 420,
      "role": "DUO_SUPPORT",
      "season": 11
    },
    {
      "lane": "BOTTOM",
      "gameId": 3506587483,
      "champion": 40,
      "platformId": "EUW1",
      "timestamp": 1516912657474,
      "queue": 420,
      "role": "DUO",
      "season": 11
    },
    {
      "lane": "BOTTOM",
      "gameId": 3506535001,
      "champion": 40,
      "platformId": "EUW1",
      "timestamp": 1516909900840,
      "queue": 420,
      "role": "DUO_SUPPORT",
      "season": 11
    },
    {
      "lane": "BOTTOM",
      "gameId": 3506123695,
      "champion": 40,
      "platformId": "EUW1",
      "timestamp": 1516906981154,
      "queue": 420,
      "role": "DUO_SUPPORT",
      "season": 11
    },
    {
      "lane": "BOTTOM",
      "gameId": 3501265511,
      "champion": 117,
      "platformId": "EUW1",
      "timestamp": 1516562580674,
      "queue": 420,
      "role": "DUO",
      "season": 11
    },
    {
      "lane": "BOTTOM",
      "gameId": 3501222828,
      "champion": 40,
      "platformId": "EUW1",
      "timestamp": 1516560051153,
      "queue": 420,
      "role": "DUO_SUPPORT",
      "season": 11
    },
    {
      "lane": "BOTTOM",
      "gameId": 3498663948,
      "champion": 40,
      "platformId": "EUW1",
      "timestamp": 1516399797837,
      "queue": 420,
      "role": "DUO_SUPPORT",
      "season": 11
    },
    {
      "lane": "BOTTOM",
      "gameId": 3498627802,
      "champion": 57,
      "platformId": "EUW1",
      "timestamp": 1516397958778,
      "queue": 420,
      "role": "DUO_SUPPORT",
      "season": 11
    },
    {
      "lane": "MID",
      "gameId": 3498575904,
      "champion": 127,
      "platformId": "EUW1",
      "timestamp": 1516396123398,
      "queue": 450,
      "role": "NONE",
      "season": 11
    },
    {
      "lane": "MID",
      "gameId": 3497120369,
      "champion": 18,
      "platformId": "EUW1",
      "timestamp": 1516305904705,
      "queue": 450,
      "role": "NONE",
      "season": 11
    },
    {
      "lane": "BOTTOM",
      "gameId": 3494764839,
      "champion": 57,
      "platformId": "EUW1",
      "timestamp": 1516129693179,
      "queue": 420,
      "role": "DUO_SUPPORT",
      "season": 10
    },
    {
      "lane": "MID",
      "gameId": 3484939191,
      "champion": 57,
      "platformId": "EUW1",
      "timestamp": 1515279171077,
      "queue": 920,
      "role": "NONE",
      "season": 10
    },
    {
      "lane": "BOTTOM",
      "gameId": 3484362161,
      "champion": 57,
      "platformId": "EUW1",
      "timestamp": 1515256664211,
      "queue": 420,
      "role": "DUO_SUPPORT",
      "season": 10
    },
    {
      "lane": "BOTTOM",
      "gameId": 3483099394,
      "champion": 40,
      "platformId": "EUW1",
      "timestamp": 1515165265176,
      "queue": 420,
      "role": "DUO_SUPPORT",
      "season": 10
    },
    {
      "lane": "BOTTOM",
      "gameId": 3483112847,
      "champion": 40,
      "platformId": "EUW1",
      "timestamp": 1515164475463,
      "queue": 420,
      "role": "DUO",
      "season": 10
    },
    {
      "lane": "BOTTOM",
      "gameId": 3478977720,
      "champion": 40,
      "platformId": "EUW1",
      "timestamp": 1514837390198,
      "queue": 420,
      "role": "DUO_SUPPORT",
      "season": 10
    },
    {
      "lane": "BOTTOM",
      "gameId": 3478924040,
      "champion": 40,
      "platformId": "EUW1",
      "timestamp": 1514835448319,
      "queue": 420,
      "role": "DUO_SUPPORT",
      "season": 10
    },
    {
      "lane": "BOTTOM",
      "gameId": 3461924699,
      "champion": 40,
      "platformId": "EUW1",
      "timestamp": 1513633512204,
      "queue": 420,
      "role": "DUO_SUPPORT",
      "season": 10
    },
    {
      "lane": "BOTTOM",
      "gameId": 3461859827,
      "champion": 57,
      "platformId": "EUW1",
      "timestamp": 1513630245115,
      "queue": 420,
      "role": "DUO",
      "season": 10
    },
    {
      "lane": "BOTTOM",
      "gameId": 3461815300,
      "champion": 40,
      "platformId": "EUW1",
      "timestamp": 1513628294106,
      "queue": 420,
      "role": "DUO_SUPPORT",
      "season": 10
    },
    {
      "lane": "BOTTOM",
      "gameId": 3461791302,
      "champion": 40,
      "platformId": "EUW1",
      "timestamp": 1513626522188,
      "queue": 420,
      "role": "DUO_SUPPORT",
      "season": 10
    },
    {
      "lane": "BOTTOM",
      "gameId": 3461608184,
      "champion": 40,
      "platformId": "EUW1",
      "timestamp": 1513619017107,
      "queue": 420,
      "role": "DUO_SUPPORT",
      "season": 10
    },
    {
      "lane": "BOTTOM",
      "gameId": 3460561484,
      "champion": 40,
      "platformId": "EUW1",
      "timestamp": 1513542950544,
      "queue": 420,
      "role": "DUO_SUPPORT",
      "season": 10
    },
    {
      "lane": "BOTTOM",
      "gameId": 3460525214,
      "champion": 40,
      "platformId": "EUW1",
      "timestamp": 1513541202908,
      "queue": 420,
      "role": "DUO_SUPPORT",
      "season": 10
    },
    {
      "lane": "BOTTOM",
      "gameId": 3460437667,
      "champion": 57,
      "platformId": "EUW1",
      "timestamp": 1513537701149,
      "queue": 420,
      "role": "DUO_SUPPORT",
      "season": 10
    },
    {
      "lane": "BOTTOM",
      "gameId": 3460367088,
      "champion": 40,
      "platformId": "EUW1",
      "timestamp": 1513534796189,
      "queue": 420,
      "role": "DUO_SUPPORT",
      "season": 10
    },
    {
      "lane": "BOTTOM",
      "gameId": 3460275798,
      "champion": 57,
      "platformId": "EUW1",
      "timestamp": 1513530602985,
      "queue": 420,
      "role": "DUO_SUPPORT",
      "season": 10
    },
    {
      "lane": "BOTTOM",
      "gameId": 3460281014,
      "champion": 40,
      "platformId": "EUW1",
      "timestamp": 1513529986589,
      "queue": 420,
      "role": "DUO",
      "season": 10
    },
    {
      "lane": "BOTTOM",
      "gameId": 3455704134,
      "champion": 111,
      "platformId": "EUW1",
      "timestamp": 1513201177990,
      "queue": 400,
      "role": "DUO_SUPPORT",
      "season": 10
    },
    {
      "lane": "BOTTOM",
      "gameId": 3455575093,
      "champion": 40,
      "platformId": "EUW1",
      "timestamp": 1513198539961,
      "queue": 400,
      "role": "DUO_SUPPORT",
      "season": 10
    },
    {
      "lane": "MID",
      "gameId": 3450862562,
      "champion": 127,
      "platformId": "EUW1",
      "timestamp": 1512863621530,
      "queue": 450,
      "role": "NONE",
      "season": 10
    },
    {
      "lane": "BOTTOM",
      "gameId": 3450818350,
      "champion": 40,
      "platformId": "EUW1",
      "timestamp": 1512861100566,
      "queue": 400,
      "role": "DUO_SUPPORT",
      "season": 10
    },
    {
      "lane": "BOTTOM",
      "gameId": 3450783610,
      "champion": 57,
      "platformId": "EUW1",
      "timestamp": 1512858685333,
      "queue": 400,
      "role": "DUO",
      "season": 10
    },
    {
      "lane": "BOTTOM",
      "gameId": 3450719350,
      "champion": 40,
      "platformId": "EUW1",
      "timestamp": 1512856475787,
      "queue": 400,
      "role": "DUO_SUPPORT",
      "season": 10
    },
    {
      "lane": "BOTTOM",
      "gameId": 3450676374,
      "champion": 57,
      "platformId": "EUW1",
      "timestamp": 1512854512893,
      "queue": 400,
      "role": "DUO",
      "season": 10
    },
    {
      "lane": "BOTTOM",
      "gameId": 3449314414,
      "champion": 40,
      "platformId": "EUW1",
      "timestamp": 1512771188969,
      "queue": 400,
      "role": "DUO_SUPPORT",
      "season": 10
    },
    {
      "lane": "BOTTOM",
      "gameId": 3449250449,
      "champion": 57,
      "platformId": "EUW1",
      "timestamp": 1512768001158,
      "queue": 400,
      "role": "DUO_SUPPORT",
      "season": 10
    },
    {
      "lane": "MID",
      "gameId": 3448909017,
      "champion": 240,
      "platformId": "EUW1",
      "timestamp": 1512750791095,
      "queue": 450,
      "role": "NONE",
      "season": 10
    },
    {
      "lane": "BOTTOM",
      "gameId": 3448838154,
      "champion": 57,
      "platformId": "EUW1",
      "timestamp": 1512747303035,
      "queue": 420,
      "role": "DUO_SUPPORT",
      "season": 10
    },
    {
      "lane": "MID",
      "gameId": 3448607583,
      "champion": 12,
      "platformId": "EUW1",
      "timestamp": 1512721051962,
      "queue": 450,
      "role": "NONE",
      "season": 10
    },
    {
      "lane": "MID",
      "gameId": 3448471701,
      "champion": 24,
      "platformId": "EUW1",
      "timestamp": 1512688848101,
      "queue": 450,
      "role": "NONE",
      "season": 10
    },
    {
      "lane": "TOP",
      "gameId": 3448443704,
      "champion": 57,
      "platformId": "EUW1",
      "timestamp": 1512686942123,
      "queue": 430,
      "role": "SOLO",
      "season": 10
    },
    {
      "lane": "BOTTOM",
      "gameId": 3447236137,
      "champion": 57,
      "platformId": "EUW1",
      "timestamp": 1512597526742,
      "queue": 400,
      "role": "DUO_SUPPORT",
      "season": 10
    },
    {
      "lane": "BOTTOM",
      "gameId": 3447226057,
      "champion": 57,
      "platformId": "EUW1",
      "timestamp": 1512595752829,
      "queue": 400,
      "role": "DUO_SUPPORT",
      "season": 10
    },
    {
      "lane": "MID",
      "gameId": 3447158853,
      "champion": 133,
      "platformId": "EUW1",
      "timestamp": 1512592781638,
      "queue": 450,
      "role": "NONE",
      "season": 10
    },
    {
      "lane": "MID",
      "gameId": 3447151937,
      "champion": 15,
      "platformId": "EUW1",
      "timestamp": 1512591714385,
      "queue": 450,
      "role": "NONE",
      "season": 10
    },
    {
      "lane": "TOP",
      "gameId": 3447095086,
      "champion": 57,
      "platformId": "EUW1",
      "timestamp": 1512589093913,
      "queue": 430,
      "role": "SOLO",
      "season": 10
    },
    {
      "lane": "TOP",
      "gameId": 3437562482,
      "champion": 39,
      "platformId": "EUW1",
      "timestamp": 1511898914459,
      "queue": 420,
      "role": "SOLO",
      "season": 10
    },
    {
      "lane": "MID",
      "gameId": 3436438451,
      "champion": 44,
      "platformId": "EUW1",
      "timestamp": 1511820175783,
      "queue": 450,
      "role": "NONE",
      "season": 10
    },
    {
      "lane": "MID",
      "gameId": 3436403667,
      "champion": 38,
      "platformId": "EUW1",
      "timestamp": 1511818068284,
      "queue": 420,
      "role": "SOLO",
      "season": 10
    },
    {
      "lane": "MID",
      "gameId": 3431516608,
      "champion": 61,
      "platformId": "EUW1",
      "timestamp": 1511535515396,
      "queue": 440,
      "role": "SOLO",
      "season": 10
    },
    {
      "lane": "BOTTOM",
      "gameId": 3394447384,
      "champion": 111,
      "platformId": "EUW1",
      "timestamp": 1509130057086,
      "queue": 420,
      "role": "DUO_SUPPORT",
      "season": 9
    },
    {
      "lane": "BOTTOM",
      "gameId": 3394398599,
      "champion": 111,
      "platformId": "EUW1",
      "timestamp": 1509127370426,
      "queue": 420,
      "role": "DUO",
      "season": 9
    },
    {
      "lane": "MID",
      "gameId": 3394362475,
      "champion": 61,
      "platformId": "EUW1",
      "timestamp": 1509124898810,
      "queue": 420,
      "role": "SOLO",
      "season": 9
    },
    {
      "lane": "BOTTOM",
      "gameId": 3394338533,
      "champion": 111,
      "platformId": "EUW1",
      "timestamp": 1509124264754,
      "queue": 420,
      "role": "DUO",
      "season": 9
    },
    {
      "lane": "BOTTOM",
      "gameId": 3394044830,
      "champion": 40,
      "platformId": "EUW1",
      "timestamp": 1509111135918,
      "queue": 420,
      "role": "DUO_SUPPORT",
      "season": 9
    },
    {
      "lane": "BOTTOM",
      "gameId": 3394015693,
      "champion": 40,
      "platformId": "EUW1",
      "timestamp": 1509109509957,
      "queue": 420,
      "role": "DUO_SUPPORT",
      "season": 9
    },
    {
      "lane": "BOTTOM",
      "gameId": 3394007122,
      "champion": 40,
      "platformId": "EUW1",
      "timestamp": 1509107919620,
      "queue": 420,
      "role": "DUO_SUPPORT",
      "season": 9
    },
    {
      "lane": "BOTTOM",
      "gameId": 3393955107,
      "champion": 40,
      "platformId": "EUW1",
      "timestamp": 1509105210403,
      "queue": 420,
      "role": "DUO_SUPPORT",
      "season": 9
    },
    {
      "lane": "MID",
      "gameId": 3393932801,
      "champion": 164,
      "platformId": "EUW1",
      "timestamp": 1509101974594,
      "queue": 450,
      "role": "NONE",
      "season": 9
    },
    {
      "lane": "BOTTOM",
      "gameId": 3393840399,
      "champion": 111,
      "platformId": "EUW1",
      "timestamp": 1509094337575,
      "queue": 420,
      "role": "DUO_SUPPORT",
      "season": 9
    },
    {
      "lane": "MID",
      "gameId": 3393845138,
      "champion": 103,
      "platformId": "EUW1",
      "timestamp": 1509091434937,
      "queue": 420,
      "role": "SOLO",
      "season": 9
    },
    {
      "lane": "MID",
      "gameId": 3392104879,
      "champion": 103,
      "platformId": "EUW1",
      "timestamp": 1508954388395,
      "queue": 420,
      "role": "SOLO",
      "season": 9
    },
    {
      "lane": "BOTTOM",
      "gameId": 3392021478,
      "champion": 40,
      "platformId": "EUW1",
      "timestamp": 1508950364805,
      "queue": 420,
      "role": "DUO_SUPPORT",
      "season": 9
    },
    {
      "lane": "MID",
      "gameId": 3391988686,
      "champion": 103,
      "platformId": "EUW1",
      "timestamp": 1508948144796,
      "queue": 420,
      "role": "SOLO",
      "season": 9
    },
    {
      "lane": "BOTTOM",
      "gameId": 3391769118,
      "champion": 40,
      "platformId": "EUW1",
      "timestamp": 1508933416756,
      "queue": 400,
      "role": "DUO_SUPPORT",
      "season": 9
    },
    {
      "lane": "BOTTOM",
      "gameId": 3391729926,
      "champion": 15,
      "platformId": "EUW1",
      "timestamp": 1508930492280,
      "queue": 400,
      "role": "DUO_CARRY",
      "season": 9
    },
    {
      "lane": "MID",
      "gameId": 3391716265,
      "champion": 150,
      "platformId": "EUW1",
      "timestamp": 1508924807748,
      "queue": 450,
      "role": "NONE",
      "season": 9
    },
    {
      "lane": "MID",
      "gameId": 3391415753,
      "champion": 103,
      "platformId": "EUW1",
      "timestamp": 1508918212398,
      "queue": 400,
      "role": "SOLO",
      "season": 9
    },
    {
      "lane": "MID",
      "gameId": 3390568538,
      "champion": 7,
      "platformId": "EUW1",
      "timestamp": 1508855263707,
      "queue": 450,
      "role": "NONE",
      "season": 9
    },
    {
      "lane": "BOTTOM",
      "gameId": 3390526630,
      "champion": 25,
      "platformId": "EUW1",
      "timestamp": 1508852632108,
      "queue": 400,
      "role": "DUO_SUPPORT",
      "season": 9
    },
    {
      "lane": "MID",
      "gameId": 3389222074,
      "champion": 61,
      "platformId": "EUW1",
      "timestamp": 1508765779528,
      "queue": 420,
      "role": "SOLO",
      "season": 9
    },
    {
      "lane": "JUNGLE",
      "gameId": 3388789277,
      "champion": 254,
      "platformId": "EUW1",
      "timestamp": 1508704834012,
      "queue": 420,
      "role": "NONE",
      "season": 9
    },
    {
      "lane": "BOTTOM",
      "gameId": 3388777662,
      "champion": 15,
      "platformId": "EUW1",
      "timestamp": 1508704203336,
      "queue": 420,
      "role": "DUO",
      "season": 9
    },
    {
      "lane": "BOTTOM",
      "gameId": 3388738963,
      "champion": 37,
      "platformId": "EUW1",
      "timestamp": 1508702100425,
      "queue": 420,
      "role": "DUO_SUPPORT",
      "season": 9
    },
    {
      "lane": "BOTTOM",
      "gameId": 3388540122,
      "champion": 37,
      "platformId": "EUW1",
      "timestamp": 1508694268746,
      "queue": 420,
      "role": "DUO_SUPPORT",
      "season": 9
    },
    {
      "lane": "BOTTOM",
      "gameId": 3388534367,
      "champion": 117,
      "platformId": "EUW1",
      "timestamp": 1508693563072,
      "queue": 420,
      "role": "DUO",
      "season": 9
    },
    {
      "lane": "JUNGLE",
      "gameId": 3388456293,
      "champion": 133,
      "platformId": "EUW1",
      "timestamp": 1508690256114,
      "queue": 420,
      "role": "NONE",
      "season": 9
    },
    {
      "lane": "BOTTOM",
      "gameId": 3387547791,
      "champion": 15,
      "platformId": "EUW1",
      "timestamp": 1508655187486,
      "queue": 420,
      "role": "DUO_CARRY",
      "season": 9
    },
    {
      "lane": "BOTTOM",
      "gameId": 3387153662,
      "champion": 37,
      "platformId": "EUW1",
      "timestamp": 1508614464838,
      "queue": 420,
      "role": "DUO_SUPPORT",
      "season": 9
    },
    {
      "lane": "MID",
      "gameId": 3387120166,
      "champion": 254,
      "platformId": "EUW1",
      "timestamp": 1508613813982,
      "queue": 420,
      "role": "DUO",
      "season": 9
    }
  ],
  "endIndex": 100,
  "startIndex": 0,
  "totalGames": 160
}