{ "seasonId": 11,
  "queueId": 400,
  "gameId": 3640277606,
  "participantIdentities": [
    {
      "player": {
        "currentPlatformId": "EUW1",
        "summonerName": "FlufFyKilLeR29",
        "matchHistoryUri": "/v1/stats/player_history/EUW1/224477353",
        "platformId": "EUW1",
        "currentAccountId": 224477353,
        "profileIcon": 3398,
        "summonerId": 79687437,
        "accountId": 224477353
      },
      "participantId": 1
    },
    {
      "player": {
        "currentPlatformId": "EUW1",
        "summonerName": "Fedexan",
        "matchHistoryUri": "/v1/stats/player_history/EUW1/214455541",
        "platformId": "EUW1",
        "currentAccountId": 214455541,
        "profileIcon": 7,
        "summonerId": 63501069,
        "accountId": 214455541
      },
      "participantId": 2
    },
    {
      "player": {
        "currentPlatformId": "EUW1",
        "summonerName": "TheChebsworth",
        "matchHistoryUri": "/v1/stats/player_history/EUW1/235444575",
        "platformId": "EUW1",
        "currentAccountId": 235444575,
        "profileIcon": 3398,
        "summonerId": 102821260,
        "accountId": 235444575
      },
      "participantId": 3
    },
    {
      "player": {
        "currentPlatformId": "EUW1",
        "summonerName": "CHR0N0XIFY",
        "matchHistoryUri": "/v1/stats/player_history/EUW1/237580302",
        "platformId": "EUW1",
        "currentAccountId": 237580302,
        "profileIcon": 3398,
        "summonerId": 105517220,
        "accountId": 237580302
      },
      "participantId": 4
    },
    {
      "player": {
        "currentPlatformId": "EUW1",
        "summonerName": "Arcyna",
        "matchHistoryUri": "/v1/stats/player_history/EUW1/22162207",
        "platformId": "EUW1",
        "currentAccountId": 22162207,
        "profileIcon": 3478,
        "summonerId": 19429219,
        "accountId": 22162207
      },
      "participantId": 5
    },
    {
      "player": {
        "currentPlatformId": "EUW1",
        "summonerName": "project HOSSAM",
        "matchHistoryUri": "/v1/stats/player_history/EUW1/232513483",
        "platformId": "EUW1",
        "currentAccountId": 232513483,
        "profileIcon": 1438,
        "summonerId": 98440331,
        "accountId": 232513483
      },
      "participantId": 6
    },
    {
      "player": {
        "currentPlatformId": "EUW1",
        "summonerName": "Michaelmc123",
        "matchHistoryUri": "/v1/stats/player_history/EUW1/233294420",
        "platformId": "EUW1",
        "currentAccountId": 233294420,
        "profileIcon": 7,
        "summonerId": 100458335,
        "accountId": 233294420
      },
      "participantId": 7
    },
    {
      "player": {
        "currentPlatformId": "EUW1",
        "summonerName": "Twiss",
        "matchHistoryUri": "/v1/stats/player_history/EUW1/205686164",
        "platformId": "EUW1",
        "currentAccountId": 205686164,
        "profileIcon": 3398,
        "summonerId": 49488616,
        "accountId": 205686164
      },
      "participantId": 8
    },
    {
      "player": {
        "currentPlatformId": "EUW1",
        "summonerName": "PDT Baby Zed",
        "matchHistoryUri": "/v1/stats/player_history/EUW1/237149268",
        "platformId": "EUW1",
        "currentAccountId": 237149268,
        "profileIcon": 3398,
        "summonerId": 105117065,
        "accountId": 237149268
      },
      "participantId": 9
    },
    {
      "player": {
        "currentPlatformId": "EUW1",
        "summonerName": "azizioo",
        "matchHistoryUri": "/v1/stats/player_history/EUW1/236627370",
        "platformId": "EUW1",
        "currentAccountId": 236627370,
        "profileIcon": 3398,
        "summonerId": 104279512,
        "accountId": 236627370
      },
      "participantId": 10
    }
  ],
  "gameVersion": "8.10.229.7328",
  "platformId": "EUW1",
  "gameMode": "CLASSIC",
  "mapId": 11,
  "gameType": "MATCHED_GAME",
  "teams": [
    {
      "firstDragon": true,
      "bans": [
        {
          "pickTurn": 1,
          "championId": -1
        },
        {
          "pickTurn": 2,
          "championId": 25
        },
        {
          "pickTurn": 3,
          "championId": 55
        },
        {
          "pickTurn": 4,
          "championId": 5
        },
        {
          "pickTurn": 5,
          "championId": 133
        }
      ],
      "firstInhibitor": false,
      "win": "Fail",
      "firstRiftHerald": false,
      "firstBaron": false,
      "baronKills": 0,
      "riftHeraldKills": 0,
      "firstBlood": true,
      "teamId": 100,
      "firstTower": true,
      "vilemawKills": 0,
      "inhibitorKills": 0,
      "towerKills": 4,
      "dominionVictoryScore": 0,
      "dragonKills": 2
    },
    {
      "firstDragon": false,
      "bans": [
        {
          "pickTurn": 6,
          "championId": 84
        },
        {
          "pickTurn": 7,
          "championId": 24
        },
        {
          "pickTurn": 8,
          "championId": 11
        },
        {
          "pickTurn": 9,
          "championId": 238
        },
        {
          "pickTurn": 10,
          "championId": 412
        }
      ],
      "firstInhibitor": true,
      "win": "Win",
      "firstRiftHerald": false,
      "firstBaron": false,
      "baronKills": 0,
      "riftHeraldKills": 0,
      "firstBlood": false,
      "teamId": 200,
      "firstTower": false,
      "vilemawKills": 0,
      "inhibitorKills": 2,
      "towerKills": 9,
      "dominionVictoryScore": 0,
      "dragonKills": 2
    }
  ],
  "participants": [
    {
      "stats": {
        "neutralMinionsKilledTeamJungle": 0,
        "visionScore": 7,
        "magicDamageDealtToChampions": 6937,
        "largestMultiKill": 1,
        "totalTimeCrowdControlDealt": 1015,
        "longestTimeSpentLiving": 512,
        "perk1Var1": 584,
        "perk1Var3": 0,
        "perk1Var2": 0,
        "tripleKills": 0,
        "perk5": 8210,
        "perk4": 8226,
        "playerScore9": 0,
        "playerScore8": 0,
        "kills": 4,
        "playerScore1": 0,
        "playerScore0": 0,
        "playerScore3": 0,
        "playerScore2": 0,
        "playerScore5": 0,
        "playerScore4": 0,
        "playerScore7": 0,
        "playerScore6": 0,
        "perk5Var1": 0,
        "perk5Var3": 0,
        "perk5Var2": 0,
        "totalScoreRank": 0,
        "neutralMinionsKilled": 4,
        "damageDealtToTurrets": 723,
        "physicalDamageDealtToChampions": 6916,
        "damageDealtToObjectives": 723,
        "perk2Var2": 0,
        "perk2Var3": 0,
        "totalUnitsHealed": 1,
        "perk2Var1": 0,
        "perk4Var1": 250,
        "totalDamageTaken": 24201,
        "perk4Var3": 0,
        "wardsKilled": 0,
        "largestCriticalStrike": 30,
        "largestKillingSpree": 3,
        "quadraKills": 0,
        "magicDamageDealt": 48407,
        "firstBloodAssist": false,
        "item2": 3047,
        "item3": 3083,
        "item0": 3075,
        "item1": 3025,
        "item6": 3340,
        "item4": 0,
        "item5": 0,
        "perk1": 8473,
        "perk0": 8437,
        "perk3": 8451,
        "perk2": 8472,
        "perk3Var3": 0,
        "perk3Var2": 0,
        "perk3Var1": 262,
        "damageSelfMitigated": 32984,
        "magicalDamageTaken": 9585,
        "perk0Var2": 565,
        "firstInhibitorKill": false,
        "trueDamageTaken": 553,
        "assists": 3,
        "perk4Var2": 1148,
        "goldSpent": 9950,
        "trueDamageDealt": 11460,
        "participantId": 1,
        "physicalDamageDealt": 100943,
        "sightWardsBoughtInGame": 0,
        "totalDamageDealtToChampions": 13853,
        "physicalDamageTaken": 14062,
        "totalPlayerScore": 0,
        "win": false,
        "objectivePlayerScore": 0,
        "totalDamageDealt": 160811,
        "neutralMinionsKilledEnemyJungle": 0,
        "deaths": 7,
        "wardsPlaced": 3,
        "perkPrimaryStyle": 8400,
        "perkSubStyle": 8200,
        "turretKills": 1,
        "firstBloodKill": true,
        "trueDamageDealtToChampions": 0,
        "goldEarned": 10541,
        "killingSprees": 1,
        "unrealKills": 0,
        "firstTowerAssist": false,
        "firstTowerKill": false,
        "champLevel": 16,
        "doubleKills": 0,
        "inhibitorKills": 0,
        "firstInhibitorAssist": false,
        "perk0Var1": 748,
        "combatPlayerScore": 0,
        "perk0Var3": 0,
        "visionWardsBoughtInGame": 0,
        "pentaKills": 0,
        "totalHeal": 546,
        "totalMinionsKilled": 208,
        "timeCCingOthers": 31
      },
      "spell1Id": 4,
      "participantId": 1,
      "highestAchievedSeasonTier": "BRONZE",
      "spell2Id": 12,
      "teamId": 100,
      "timeline": {
        "lane": "JUNGLE",
        "participantId": 1,
        "goldPerMinDeltas": {
          "20-30": 335.9,
          "0-10": 333,
          "10-20": 332.6
        },
        "creepsPerMinDeltas": {
          "20-30": 8.2,
          "0-10": 5.699999999999999,
          "10-20": 6.9
        },
        "xpPerMinDeltas": {
          "20-30": 516.9,
          "0-10": 508.9,
          "10-20": 496.9
        },
        "role": "NONE",
        "damageTakenPerMinDeltas": {
          "20-30": 1168.6,
          "0-10": 420.20000000000005,
          "10-20": 701.4
        }
      },
      "championId": 516
    },
    {
      "stats": {
        "neutralMinionsKilledTeamJungle": 64,
        "visionScore": 25,
        "magicDamageDealtToChampions": 4874,
        "largestMultiKill": 1,
        "totalTimeCrowdControlDealt": 364,
        "longestTimeSpentLiving": 541,
        "perk1Var1": 217,
        "perk1Var3": 0,
        "perk1Var2": 0,
        "tripleKills": 0,
        "perk5": 8014,
        "perk4": 9104,
        "playerScore9": 0,
        "playerScore8": 0,
        "kills": 4,
        "playerScore1": 0,
        "playerScore0": 0,
        "playerScore3": 0,
        "playerScore2": 0,
        "playerScore5": 0,
        "playerScore4": 0,
        "playerScore7": 0,
        "playerScore6": 0,
        "perk5Var1": 148,
        "perk5Var3": 0,
        "perk5Var2": 0,
        "totalScoreRank": 0,
        "neutralMinionsKilled": 102,
        "damageDealtToTurrets": 0,
        "physicalDamageDealtToChampions": 1673,
        "damageDealtToObjectives": 11926,
        "perk2Var2": 0,
        "perk2Var3": 0,
        "totalUnitsHealed": 1,
        "perk2Var1": 3,
        "perk4Var1": 19,
        "totalDamageTaken": 30288,
        "perk4Var3": 0,
        "wardsKilled": 1,
        "largestCriticalStrike": 0,
        "largestKillingSpree": 0,
        "quadraKills": 0,
        "magicDamageDealt": 61915,
        "firstBloodAssist": false,
        "item2": 1401,
        "item3": 3091,
        "item0": 3748,
        "item1": 3047,
        "item6": 3340,
        "item4": 0,
        "item5": 0,
        "perk1": 8143,
        "perk0": 8128,
        "perk3": 8105,
        "perk2": 8136,
        "perk3Var3": 0,
        "perk3Var2": 0,
        "perk3Var1": 2,
        "damageSelfMitigated": 21838,
        "magicalDamageTaken": 7942,
        "perk0Var2": 0,
        "firstInhibitorKill": false,
        "trueDamageTaken": 288,
        "assists": 2,
        "perk4Var2": 50,
        "goldSpent": 9600,
        "trueDamageDealt": 7685,
        "participantId": 2,
        "physicalDamageDealt": 63442,
        "sightWardsBoughtInGame": 0,
        "totalDamageDealtToChampions": 7034,
        "physicalDamageTaken": 22058,
        "totalPlayerScore": 0,
        "win": false,
        "objectivePlayerScore": 0,
        "totalDamageDealt": 133043,
        "neutralMinionsKilledEnemyJungle": 8,
        "deaths": 6,
        "wardsPlaced": 16,
        "perkPrimaryStyle": 8100,
        "perkSubStyle": 8000,
        "turretKills": 0,
        "firstBloodKill": false,
        "trueDamageDealtToChampions": 486,
        "goldEarned": 10261,
        "killingSprees": 0,
        "unrealKills": 0,
        "firstTowerAssist": false,
        "firstTowerKill": false,
        "champLevel": 14,
        "doubleKills": 0,
        "inhibitorKills": 0,
        "firstInhibitorAssist": false,
        "perk0Var1": 571,
        "combatPlayerScore": 0,
        "perk0Var3": 0,
        "visionWardsBoughtInGame": 0,
        "pentaKills": 0,
        "totalHeal": 15298,
        "totalMinionsKilled": 52,
        "timeCCingOthers": 11
      },
      "spell1Id": 11,
      "participantId": 2,
      "highestAchievedSeasonTier": "BRONZE",
      "spell2Id": 4,
      "teamId": 100,
      "timeline": {
        "lane": "JUNGLE",
        "participantId": 2,
        "goldPerMinDeltas": {
          "20-30": 340.2,
          "0-10": 211.39999999999998,
          "10-20": 416.29999999999995
        },
        "creepsPerMinDeltas": {
          "20-30": 4.2,
          "0-10": 0,
          "10-20": 0.7
        },
        "xpPerMinDeltas": {
          "20-30": 573.4,
          "0-10": 249.4,
          "10-20": 443.2
        },
        "role": "NONE",
        "damageTakenPerMinDeltas": {
          "20-30": 1297.6,
          "0-10": 608.8,
          "10-20": 1065
        }
      },
      "championId": 19
    },
    {
      "stats": {
        "neutralMinionsKilledTeamJungle": 0,
        "visionScore": 13,
        "magicDamageDealtToChampions": 9431,
        "largestMultiKill": 1,
        "totalTimeCrowdControlDealt": 226,
        "longestTimeSpentLiving": 215,
        "perk1Var1": 15,
        "perk1Var3": 0,
        "perk1Var2": 0,
        "tripleKills": 0,
        "perk5": 8347,
        "perk4": 8345,
        "playerScore9": 0,
        "playerScore8": 0,
        "kills": 2,
        "playerScore1": 0,
        "playerScore0": 0,
        "playerScore3": 0,
        "playerScore2": 0,
        "playerScore5": 0,
        "playerScore4": 0,
        "playerScore7": 0,
        "playerScore6": 0,
        "perk5Var1": 0,
        "perk5Var3": 0,
        "perk5Var2": 0,
        "totalScoreRank": 0,
        "neutralMinionsKilled": 0,
        "damageDealtToTurrets": 962,
        "physicalDamageDealtToChampions": 928,
        "damageDealtToObjectives": 1897,
        "perk2Var2": 0,
        "perk2Var3": 0,
        "totalUnitsHealed": 1,
        "perk2Var1": 0,
        "perk4Var1": 4,
        "totalDamageTaken": 16076,
        "perk4Var3": 0,
        "wardsKilled": 0,
        "largestCriticalStrike": 0,
        "largestKillingSpree": 0,
        "quadraKills": 0,
        "magicDamageDealt": 31606,
        "firstBloodAssist": false,
        "item2": 3020,
        "item3": 1026,
        "item0": 1056,
        "item1": 3285,
        "item6": 3340,
        "item4": 0,
        "item5": 0,
        "perk1": 8243,
        "perk0": 8229,
        "perk3": 8236,
        "perk2": 8210,
        "perk3Var3": 0,
        "perk3Var2": 0,
        "perk3Var1": 48,
        "damageSelfMitigated": 5654,
        "magicalDamageTaken": 7494,
        "perk0Var2": 0,
        "firstInhibitorKill": false,
        "trueDamageTaken": 155,
        "assists": 5,
        "perk4Var2": 0,
        "goldSpent": 5650,
        "trueDamageDealt": 897,
        "participantId": 3,
        "physicalDamageDealt": 13000,
        "sightWardsBoughtInGame": 0,
        "totalDamageDealtToChampions": 11256,
        "physicalDamageTaken": 8426,
        "totalPlayerScore": 0,
        "win": false,
        "objectivePlayerScore": 0,
        "totalDamageDealt": 45503,
        "neutralMinionsKilledEnemyJungle": 0,
        "deaths": 12,
        "wardsPlaced": 7,
        "perkPrimaryStyle": 8200,
        "perkSubStyle": 8300,
        "turretKills": 0,
        "firstBloodKill": false,
        "trueDamageDealtToChampions": 897,
        "goldEarned": 6812,
        "killingSprees": 0,
        "unrealKills": 0,
        "firstTowerAssist": false,
        "firstTowerKill": false,
        "champLevel": 11,
        "doubleKills": 0,
        "inhibitorKills": 0,
        "firstInhibitorAssist": false,
        "perk0Var1": 929,
        "combatPlayerScore": 0,
        "perk0Var3": 0,
        "visionWardsBoughtInGame": 0,
        "pentaKills": 0,
        "totalHeal": 740,
        "totalMinionsKilled": 70,
        "timeCCingOthers": 27
      },
      "spell1Id": 14,
      "participantId": 3,
      "highestAchievedSeasonTier": "SILVER",
      "spell2Id": 4,
      "teamId": 100,
      "timeline": {
        "lane": "MIDDLE",
        "participantId": 3,
        "goldPerMinDeltas": {
          "20-30": 261,
          "0-10": 153.89999999999998,
          "10-20": 213.60000000000002
        },
        "creepsPerMinDeltas": {
          "20-30": 0.8999999999999999,
          "0-10": 3.2,
          "10-20": 2.9
        },
        "xpPerMinDeltas": {
          "20-30": 280.4,
          "0-10": 286,
          "10-20": 278.4
        },
        "role": "SOLO",
        "damageTakenPerMinDeltas": {
          "20-30": 702.8,
          "0-10": 324.4,
          "10-20": 580.4
        }
      },
      "championId": 99
    },
    {
      "stats": {
        "neutralMinionsKilledTeamJungle": 0,
        "visionScore": 26,
        "magicDamageDealtToChampions": 8621,
        "largestMultiKill": 1,
        "totalTimeCrowdControlDealt": 154,
        "longestTimeSpentLiving": 524,
        "perk1Var1": 15,
        "perk1Var3": 0,
        "perk1Var2": 0,
        "tripleKills": 0,
        "perk5": 8345,
        "perk4": 8306,
        "playerScore9": 0,
        "playerScore8": 0,
        "kills": 2,
        "playerScore1": 0,
        "playerScore0": 0,
        "playerScore3": 0,
        "playerScore2": 0,
        "playerScore5": 0,
        "playerScore4": 0,
        "playerScore7": 0,
        "playerScore6": 0,
        "perk5Var1": 4,
        "perk5Var3": 0,
        "perk5Var2": 0,
        "totalScoreRank": 0,
        "neutralMinionsKilled": 0,
        "damageDealtToTurrets": 1601,
        "physicalDamageDealtToChampions": 5505,
        "damageDealtToObjectives": 2884,
        "perk2Var2": 0,
        "perk2Var3": 0,
        "totalUnitsHealed": 3,
        "perk2Var1": 0,
        "perk4Var1": 11,
        "totalDamageTaken": 26285,
        "perk4Var3": 0,
        "wardsKilled": 1,
        "largestCriticalStrike": 0,
        "largestKillingSpree": 0,
        "quadraKills": 0,
        "magicDamageDealt": 16462,
        "firstBloodAssist": false,
        "item2": 1057,
        "item3": 3117,
        "item0": 3025,
        "item1": 3401,
        "item6": 3340,
        "item4": 1028,
        "item5": 0,
        "perk1": 8243,
        "perk0": 8229,
        "perk3": 8237,
        "perk2": 8210,
        "perk3Var3": 0,
        "perk3Var2": 0,
        "perk3Var1": 539,
        "damageSelfMitigated": 18106,
        "magicalDamageTaken": 13905,
        "perk0Var2": 0,
        "firstInhibitorKill": false,
        "trueDamageTaken": 258,
        "assists": 11,
        "perk4Var2": 0,
        "goldSpent": 8270,
        "trueDamageDealt": 5419,
        "participantId": 4,
        "physicalDamageDealt": 13895,
        "sightWardsBoughtInGame": 0,
        "totalDamageDealtToChampions": 14933,
        "physicalDamageTaken": 12120,
        "totalPlayerScore": 0,
        "win": false,
        "objectivePlayerScore": 0,
        "totalDamageDealt": 35777,
        "neutralMinionsKilledEnemyJungle": 0,
        "deaths": 10,
        "wardsPlaced": 15,
        "perkPrimaryStyle": 8200,
        "perkSubStyle": 8300,
        "turretKills": 0,
        "firstBloodKill": false,
        "trueDamageDealtToChampions": 805,
        "goldEarned": 7525,
        "killingSprees": 0,
        "unrealKills": 0,
        "firstTowerAssist": false,
        "firstTowerKill": false,
        "champLevel": 12,
        "doubleKills": 0,
        "inhibitorKills": 0,
        "firstInhibitorAssist": false,
        "perk0Var1": 370,
        "combatPlayerScore": 0,
        "perk0Var3": 0,
        "visionWardsBoughtInGame": 0,
        "pentaKills": 0,
        "totalHeal": 1781,
        "totalMinionsKilled": 28,
        "timeCCingOthers": 48
      },
      "spell1Id": 4,
      "participantId": 4,
      "highestAchievedSeasonTier": "UNRANKED",
      "spell2Id": 14,
      "teamId": 100,
      "timeline": {
        "lane": "BOTTOM",
        "participantId": 4,
        "csDiffPerMinDeltas": {
          "20-30": 1.15,
          "0-10": 0.95,
          "10-20": 1.4499999999999995
        },
        "goldPerMinDeltas": {
          "20-30": 234.10000000000002,
          "0-10": 194.6,
          "10-20": 271
        },
        "xpDiffPerMinDeltas": {
          "20-30": 19.750000000000057,
          "0-10": 73.59999999999995,
          "10-20": -17.599999999999994
        },
        "creepsPerMinDeltas": {
          "20-30": 0.4,
          "0-10": 0.7,
          "10-20": 1.7000000000000002
        },
        "xpPerMinDeltas": {
          "20-30": 369.1,
          "0-10": 277,
          "10-20": 311.8
        },
        "role": "DUO_SUPPORT",
        "damageTakenDiffPerMinDeltas": {
          "20-30": 786.3000000000001,
          "0-10": 76.00000000000001,
          "10-20": 455.04999999999995
        },
        "damageTakenPerMinDeltas": {
          "20-30": 1398,
          "0-10": 396.4,
          "10-20": 834.1
        }
      },
      "championId": 53
    },
    {
      "stats": {
        "neutralMinionsKilledTeamJungle": 4,
        "visionScore": 18,
        "magicDamageDealtToChampions": 6062,
        "largestMultiKill": 2,
        "totalTimeCrowdControlDealt": 139,
        "longestTimeSpentLiving": 830,
        "perk1Var1": 485,
        "perk1Var3": 0,
        "perk1Var2": 0,
        "tripleKills": 0,
        "perk5": 8236,
        "perk4": 8234,
        "playerScore9": 0,
        "playerScore8": 0,
        "kills": 10,
        "playerScore1": 0,
        "playerScore0": 0,
        "playerScore3": 0,
        "playerScore2": 0,
        "playerScore5": 0,
        "playerScore4": 0,
        "playerScore7": 0,
        "playerScore6": 0,
        "perk5Var1": 28,
        "perk5Var3": 0,
        "perk5Var2": 0,
        "totalScoreRank": 0,
        "neutralMinionsKilled": 4,
        "damageDealtToTurrets": 2475,
        "physicalDamageDealtToChampions": 8033,
        "damageDealtToObjectives": 2475,
        "perk2Var2": 20,
        "perk2Var3": 0,
        "totalUnitsHealed": 2,
        "perk2Var1": 12,
        "perk4Var1": 26,
        "totalDamageTaken": 22398,
        "perk4Var3": 0,
        "wardsKilled": 4,
        "largestCriticalStrike": 511,
        "largestKillingSpree": 5,
        "quadraKills": 0,
        "magicDamageDealt": 28981,
        "firstBloodAssist": false,
        "item2": 3508,
        "item3": 3124,
        "item0": 3006,
        "item1": 3085,
        "item6": 3363,
        "item4": 3101,
        "item5": 3108,
        "perk1": 9111,
        "perk0": 8021,
        "perk3": 8014,
        "perk2": 9104,
        "perk3Var3": 0,
        "perk3Var2": 0,
        "perk3Var1": 408,
        "damageSelfMitigated": 7307,
        "magicalDamageTaken": 11279,
        "perk0Var2": 0,
        "firstInhibitorKill": false,
        "trueDamageTaken": 267,
        "assists": 4,
        "perk4Var2": 0,
        "goldSpent": 15580,
        "trueDamageDealt": 4988,
        "participantId": 5,
        "physicalDamageDealt": 113369,
        "sightWardsBoughtInGame": 0,
        "totalDamageDealtToChampions": 14227,
        "physicalDamageTaken": 10851,
        "totalPlayerScore": 0,
        "win": false,
        "objectivePlayerScore": 0,
        "totalDamageDealt": 147339,
        "neutralMinionsKilledEnemyJungle": 0,
        "deaths": 8,
        "wardsPlaced": 6,
        "perkPrimaryStyle": 8000,
        "perkSubStyle": 8200,
        "turretKills": 1,
        "firstBloodKill": false,
        "trueDamageDealtToChampions": 132,
        "goldEarned": 13941,
        "killingSprees": 2,
        "unrealKills": 0,
        "firstTowerAssist": true,
        "firstTowerKill": false,
        "champLevel": 15,
        "doubleKills": 1,
        "inhibitorKills": 0,
        "firstInhibitorAssist": false,
        "perk0Var1": 1679,
        "combatPlayerScore": 0,
        "perk0Var3": 0,
        "visionWardsBoughtInGame": 0,
        "pentaKills": 0,
        "totalHeal": 4048,
        "totalMinionsKilled": 200,
        "timeCCingOthers": 1
      },
      "spell1Id": 4,
      "participantId": 5,
      "highestAchievedSeasonTier": "UNRANKED",
      "spell2Id": 7,
      "teamId": 100,
      "timeline": {
        "lane": "BOTTOM",
        "participantId": 5,
        "csDiffPerMinDeltas": {
          "20-30": 1.15,
          "0-10": 0.95,
          "10-20": 1.4499999999999995
        },
        "goldPerMinDeltas": {
          "20-30": 564.1,
          "0-10": 335.5,
          "10-20": 441.9
        },
        "xpDiffPerMinDeltas": {
          "20-30": 19.750000000000057,
          "0-10": 73.59999999999995,
          "10-20": -17.599999999999994
        },
        "creepsPerMinDeltas": {
          "20-30": 6,
          "0-10": 6.2,
          "10-20": 7.8
        },
        "xpPerMinDeltas": {
          "20-30": 554,
          "0-10": 362.5,
          "10-20": 455.59999999999997
        },
        "role": "DUO_CARRY",
        "damageTakenDiffPerMinDeltas": {
          "20-30": 786.3000000000001,
          "0-10": 76.00000000000001,
          "10-20": 455.04999999999995
        },
        "damageTakenPerMinDeltas": {
          "20-30": 953.6,
          "0-10": 339,
          "10-20": 718
        }
      },
      "championId": 145
    },
    {
      "stats": {
        "neutralMinionsKilledTeamJungle": 98,
        "visionScore": 18,
        "magicDamageDealtToChampions": 1703,
        "largestMultiKill": 2,
        "totalTimeCrowdControlDealt": 682,
        "longestTimeSpentLiving": 960,
        "perk1Var1": 440,
        "perk1Var3": 0,
        "perk1Var2": 0,
        "tripleKills": 0,
        "perk5": 8014,
        "perk4": 9111,
        "playerScore9": 0,
        "playerScore8": 0,
        "kills": 8,
        "playerScore1": 0,
        "playerScore0": 0,
        "playerScore3": 0,
        "playerScore2": 0,
        "playerScore5": 0,
        "playerScore4": 0,
        "playerScore7": 0,
        "playerScore6": 0,
        "perk5Var1": 406,
        "perk5Var3": 0,
        "perk5Var2": 0,
        "totalScoreRank": 0,
        "neutralMinionsKilled": 132,
        "damageDealtToTurrets": 2871,
        "physicalDamageDealtToChampions": 10155,
        "damageDealtToObjectives": 10210,
        "perk2Var2": 0,
        "perk2Var3": 0,
        "totalUnitsHealed": 1,
        "perk2Var1": 18,
        "perk4Var1": 1345,
        "totalDamageTaken": 25185,
        "perk4Var3": 0,
        "wardsKilled": 0,
        "largestCriticalStrike": 0,
        "largestKillingSpree": 6,
        "quadraKills": 0,
        "magicDamageDealt": 31196,
        "firstBloodAssist": false,
        "item2": 3077,
        "item3": 3026,
        "item0": 1400,
        "item1": 3133,
        "item6": 3340,
        "item4": 3047,
        "item5": 3071,
        "perk1": 8143,
        "perk0": 8112,
        "perk3": 8105,
        "perk2": 8138,
        "perk3Var3": 0,
        "perk3Var2": 0,
        "perk3Var1": 5,
        "damageSelfMitigated": 18428,
        "magicalDamageTaken": 9474,
        "perk0Var2": 0,
        "firstInhibitorKill": false,
        "trueDamageTaken": 517,
        "assists": 12,
        "perk4Var2": 0,
        "goldSpent": 12200,
        "trueDamageDealt": 6298,
        "participantId": 6,
        "physicalDamageDealt": 135957,
        "sightWardsBoughtInGame": 0,
        "totalDamageDealtToChampions": 12513,
        "physicalDamageTaken": 15194,
        "totalPlayerScore": 0,
        "win": true,
        "objectivePlayerScore": 0,
        "totalDamageDealt": 173452,
        "neutralMinionsKilledEnemyJungle": 13,
        "deaths": 3,
        "wardsPlaced": 10,
        "perkPrimaryStyle": 8100,
        "perkSubStyle": 8000,
        "turretKills": 1,
        "firstBloodKill": false,
        "trueDamageDealtToChampions": 654,
        "goldEarned": 13166,
        "killingSprees": 1,
        "unrealKills": 0,
        "firstTowerAssist": false,
        "firstTowerKill": false,
        "champLevel": 16,
        "doubleKills": 1,
        "inhibitorKills": 0,
        "firstInhibitorAssist": false,
        "perk0Var1": 1253,
        "combatPlayerScore": 0,
        "perk0Var3": 0,
        "visionWardsBoughtInGame": 3,
        "pentaKills": 0,
        "totalHeal": 8463,
        "totalMinionsKilled": 48,
        "timeCCingOthers": 13
      },
      "spell1Id": 11,
      "participantId": 6,
      "highestAchievedSeasonTier": "UNRANKED",
      "spell2Id": 4,
      "teamId": 200,
      "timeline": {
        "lane": "JUNGLE",
        "participantId": 6,
        "goldPerMinDeltas": {
          "20-30": 430.20000000000005,
          "0-10": 304.1,
          "10-20": 497.6
        },
        "creepsPerMinDeltas": {
          "20-30": 3.2,
          "0-10": 0,
          "10-20": 1.6
        },
        "xpPerMinDeltas": {
          "20-30": 625.6,
          "0-10": 340.79999999999995,
          "10-20": 622.0999999999999
        },
        "role": "NONE",
        "damageTakenPerMinDeltas": {
          "20-30": 981.7,
          "0-10": 686,
          "10-20": 787.0999999999999
        }
      },
      "championId": 64
    },
    {
      "stats": {
        "neutralMinionsKilledTeamJungle": 4,
        "visionScore": 19,
        "magicDamageDealtToChampions": 1255,
        "largestMultiKill": 0,
        "totalTimeCrowdControlDealt": 1594,
        "longestTimeSpentLiving": 702,
        "perk1Var1": 673,
        "perk1Var3": 0,
        "perk1Var2": 2228,
        "tripleKills": 0,
        "perk5": 8135,
        "perk4": 8139,
        "playerScore9": 0,
        "playerScore8": 0,
        "kills": 0,
        "playerScore1": 0,
        "playerScore0": 0,
        "playerScore3": 0,
        "playerScore2": 0,
        "playerScore5": 0,
        "playerScore4": 0,
        "playerScore7": 0,
        "playerScore6": 0,
        "perk5Var1": 5,
        "perk5Var3": 0,
        "perk5Var2": 0,
        "totalScoreRank": 0,
        "neutralMinionsKilled": 12,
        "damageDealtToTurrets": 3257,
        "physicalDamageDealtToChampions": 7813,
        "damageDealtToObjectives": 6817,
        "perk2Var2": 30,
        "perk2Var3": 0,
        "totalUnitsHealed": 2,
        "perk2Var1": 22,
        "perk4Var1": 367,
        "totalDamageTaken": 11429,
        "perk4Var3": 0,
        "wardsKilled": 1,
        "largestCriticalStrike": 198,
        "largestKillingSpree": 0,
        "quadraKills": 0,
        "magicDamageDealt": 3384,
        "firstBloodAssist": false,
        "item2": 3085,
        "item3": 1055,
        "item0": 3153,
        "item1": 3006,
        "item6": 3340,
        "item4": 1042,
        "item5": 1042,
        "perk1": 9101,
        "perk0": 8010,
        "perk3": 8014,
        "perk2": 9104,
        "perk3Var3": 0,
        "perk3Var2": 0,
        "perk3Var1": 84,
        "damageSelfMitigated": 5888,
        "magicalDamageTaken": 3957,
        "perk0Var2": 0,
        "firstInhibitorKill": false,
        "trueDamageTaken": 100,
        "assists": 9,
        "perk4Var2": 0,
        "goldSpent": 8375,
        "trueDamageDealt": 12317,
        "participantId": 7,
        "physicalDamageDealt": 86452,
        "sightWardsBoughtInGame": 0,
        "totalDamageDealtToChampions": 9475,
        "physicalDamageTaken": 7370,
        "totalPlayerScore": 0,
        "win": true,
        "objectivePlayerScore": 0,
        "totalDamageDealt": 102153,
        "neutralMinionsKilledEnemyJungle": 8,
        "deaths": 6,
        "wardsPlaced": 6,
        "perkPrimaryStyle": 8000,
        "perkSubStyle": 8100,
        "turretKills": 1,
        "firstBloodKill": false,
        "trueDamageDealtToChampions": 407,
        "goldEarned": 8729,
        "killingSprees": 0,
        "unrealKills": 0,
        "firstTowerAssist": false,
        "firstTowerKill": false,
        "champLevel": 13,
        "doubleKills": 0,
        "inhibitorKills": 0,
        "firstInhibitorAssist": true,
        "perk0Var1": 184,
        "combatPlayerScore": 0,
        "perk0Var3": 0,
        "visionWardsBoughtInGame": 1,
        "pentaKills": 0,
        "totalHeal": 1507,
        "totalMinionsKilled": 131,
        "timeCCingOthers": 29
      },
      "spell1Id": 7,
      "participantId": 7,
      "highestAchievedSeasonTier": "UNRANKED",
      "spell2Id": 4,
      "teamId": 200,
      "timeline": {
        "lane": "BOTTOM",
        "participantId": 7,
        "csDiffPerMinDeltas": {
          "20-30": -1.15,
          "0-10": -0.95,
          "10-20": -1.4499999999999995
        },
        "goldPerMinDeltas": {
          "20-30": 322.8,
          "0-10": 196.39999999999998,
          "10-20": 299
        },
        "xpDiffPerMinDeltas": {
          "20-30": -19.750000000000057,
          "0-10": -73.59999999999995,
          "10-20": 17.599999999999994
        },
        "creepsPerMinDeltas": {
          "20-30": 3.8,
          "0-10": 4.6,
          "10-20": 4.6
        },
        "xpPerMinDeltas": {
          "20-30": 396.3,
          "0-10": 275.20000000000005,
          "10-20": 379.8
        },
        "role": "DUO_CARRY",
        "damageTakenDiffPerMinDeltas": {
          "20-30": -786.3000000000001,
          "0-10": -76.00000000000001,
          "10-20": -455.04999999999995
        },
        "damageTakenPerMinDeltas": {
          "20-30": 274.2,
          "0-10": 329.9,
          "10-20": 538.8
        }
      },
      "championId": 22
    },
    {
      "stats": {
        "neutralMinionsKilledTeamJungle": 0,
        "visionScore": 39,
        "magicDamageDealtToChampions": 5398,
        "largestMultiKill": 0,
        "totalTimeCrowdControlDealt": 412,
        "longestTimeSpentLiving": 902,
        "perk1Var1": 10,
        "perk1Var3": 0,
        "perk1Var2": 0,
        "tripleKills": 0,
        "perk5": 8236,
        "perk4": 8210,
        "playerScore9": 0,
        "playerScore8": 0,
        "kills": 0,
        "playerScore1": 0,
        "playerScore0": 0,
        "playerScore3": 0,
        "playerScore2": 0,
        "playerScore5": 0,
        "playerScore4": 0,
        "playerScore7": 0,
        "playerScore6": 0,
        "perk5Var1": 48,
        "perk5Var3": 0,
        "perk5Var2": 0,
        "totalScoreRank": 0,
        "neutralMinionsKilled": 0,
        "damageDealtToTurrets": 1790,
        "physicalDamageDealtToChampions": 895,
        "damageDealtToObjectives": 1790,
        "perk2Var2": 0,
        "perk2Var3": 0,
        "totalUnitsHealed": 1,
        "perk2Var1": 4,
        "perk4Var1": 0,
        "totalDamageTaken": 8642,
        "perk4Var3": 0,
        "wardsKilled": 0,
        "largestCriticalStrike": 0,
        "largestKillingSpree": 0,
        "quadraKills": 0,
        "magicDamageDealt": 18988,
        "firstBloodAssist": false,
        "item2": 0,
        "item3": 3092,
        "item0": 3113,
        "item1": 3050,
        "item6": 3340,
        "item4": 3190,
        "item5": 3117,
        "perk1": 8304,
        "perk0": 8359,
        "perk3": 8347,
        "perk2": 8345,
        "perk3Var3": 0,
        "perk3Var2": 0,
        "perk3Var1": 0,
        "damageSelfMitigated": 11977,
        "magicalDamageTaken": 3005,
        "perk0Var2": 8,
        "firstInhibitorKill": false,
        "trueDamageTaken": 189,
        "assists": 21,
        "perk4Var2": 0,
        "goldSpent": 8450,
        "trueDamageDealt": 0,
        "participantId": 8,
        "physicalDamageDealt": 4062,
        "sightWardsBoughtInGame": 0,
        "totalDamageDealtToChampions": 6294,
        "physicalDamageTaken": 5447,
        "totalPlayerScore": 0,
        "win": true,
        "objectivePlayerScore": 0,
        "totalDamageDealt": 23050,
        "neutralMinionsKilledEnemyJungle": 0,
        "deaths": 3,
        "wardsPlaced": 23,
        "perkPrimaryStyle": 8300,
        "perkSubStyle": 8200,
        "turretKills": 0,
        "firstBloodKill": false,
        "trueDamageDealtToChampions": 0,
        "goldEarned": 9055,
        "killingSprees": 0,
        "unrealKills": 0,
        "firstTowerAssist": false,
        "firstTowerKill": false,
        "champLevel": 14,
        "doubleKills": 0,
        "inhibitorKills": 0,
        "firstInhibitorAssist": true,
        "perk0Var1": 195,
        "combatPlayerScore": 0,
        "perk0Var3": 0,
        "visionWardsBoughtInGame": 1,
        "pentaKills": 0,
        "totalHeal": 757,
        "totalMinionsKilled": 27,
        "timeCCingOthers": 44
      },
      "spell1Id": 3,
      "participantId": 8,
      "highestAchievedSeasonTier": "SILVER",
      "spell2Id": 4,
      "teamId": 200,
      "timeline": {
        "lane": "BOTTOM",
        "participantId": 8,
        "csDiffPerMinDeltas": {
          "20-30": -1.15,
          "0-10": -0.95,
          "10-20": -1.4499999999999995
        },
        "goldPerMinDeltas": {
          "20-30": 332,
          "0-10": 165.60000000000002,
          "10-20": 341.5
        },
        "xpDiffPerMinDeltas": {
          "20-30": -19.750000000000057,
          "0-10": -73.59999999999995,
          "10-20": 17.599999999999994
        },
        "creepsPerMinDeltas": {
          "20-30": 0.3,
          "0-10": 0.4,
          "10-20": 2
        },
        "xpPerMinDeltas": {
          "20-30": 487.29999999999995,
          "0-10": 217.10000000000002,
          "10-20": 422.79999999999995
        },
        "role": "DUO_SUPPORT",
        "damageTakenDiffPerMinDeltas": {
          "20-30": -786.3000000000001,
          "0-10": -76.00000000000001,
          "10-20": -455.04999999999995
        },
        "damageTakenPerMinDeltas": {
          "20-30": 504.8,
          "0-10": 253.5,
          "10-20": 103.2
        }
      },
      "championId": 117
    },
    {
      "stats": {
        "neutralMinionsKilledTeamJungle": 0,
        "visionScore": 32,
        "magicDamageDealtToChampions": 37294,
        "largestMultiKill": 3,
        "totalTimeCrowdControlDealt": 228,
        "longestTimeSpentLiving": 685,
        "perk1Var1": 2502,
        "perk1Var3": 0,
        "perk1Var2": 0,
        "tripleKills": 2,
        "perk5": 8014,
        "perk4": 9111,
        "playerScore9": 0,
        "playerScore8": 0,
        "kills": 27,
        "playerScore1": 0,
        "playerScore0": 0,
        "playerScore3": 0,
        "playerScore2": 0,
        "playerScore5": 0,
        "playerScore4": 0,
        "playerScore7": 0,
        "playerScore6": 0,
        "perk5Var1": 1236,
        "perk5Var3": 0,
        "perk5Var2": 0,
        "totalScoreRank": 0,
        "neutralMinionsKilled": 12,
        "damageDealtToTurrets": 12191,
        "physicalDamageDealtToChampions": 5278,
        "damageDealtToObjectives": 16484,
        "perk2Var2": 0,
        "perk2Var3": 0,
        "totalUnitsHealed": 1,
        "perk2Var1": 30,
        "perk4Var1": 3126,
        "totalDamageTaken": 19439,
        "perk4Var3": 0,
        "wardsKilled": 2,
        "largestCriticalStrike": 1028,
        "largestKillingSpree": 10,
        "quadraKills": 0,
        "magicDamageDealt": 115692,
        "firstBloodAssist": false,
        "item2": 3157,
        "item3": 3100,
        "item0": 3041,
        "item1": 3152,
        "item6": 3340,
        "item4": 3089,
        "item5": 3020,
        "perk1": 8143,
        "perk0": 8112,
        "perk3": 8134,
        "perk2": 8138,
        "perk3Var3": 0,
        "perk3Var2": 0,
        "perk3Var1": 5,
        "damageSelfMitigated": 10068,
        "magicalDamageTaken": 10266,
        "perk0Var2": 0,
        "firstInhibitorKill": true,
        "trueDamageTaken": 978,
        "assists": 7,
        "perk4Var2": 0,
        "goldSpent": 14950,
        "trueDamageDealt": 6599,
        "participantId": 9,
        "physicalDamageDealt": 21879,
        "sightWardsBoughtInGame": 0,
        "totalDamageDealtToChampions": 42941,
        "physicalDamageTaken": 8194,
        "totalPlayerScore": 0,
        "win": true,
        "objectivePlayerScore": 0,
        "totalDamageDealt": 144171,
        "neutralMinionsKilledEnemyJungle": 4,
        "deaths": 3,
        "wardsPlaced": 13,
        "perkPrimaryStyle": 8100,
        "perkSubStyle": 8000,
        "turretKills": 2,
        "firstBloodKill": false,
        "trueDamageDealtToChampions": 369,
        "goldEarned": 18537,
        "killingSprees": 4,
        "unrealKills": 0,
        "firstTowerAssist": false,
        "firstTowerKill": false,
        "champLevel": 16,
        "doubleKills": 4,
        "inhibitorKills": 2,
        "firstInhibitorAssist": false,
        "perk0Var1": 2720,
        "combatPlayerScore": 0,
        "perk0Var3": 0,
        "visionWardsBoughtInGame": 0,
        "pentaKills": 0,
        "totalHeal": 3824,
        "totalMinionsKilled": 165,
        "timeCCingOthers": 13
      },
      "spell1Id": 4,
      "participantId": 9,
      "highestAchievedSeasonTier": "UNRANKED",
      "spell2Id": 14,
      "teamId": 200,
      "timeline": {
        "lane": "TOP",
        "participantId": 9,
        "goldPerMinDeltas": {
          "20-30": 687.8,
          "0-10": 373.20000000000005,
          "10-20": 730.5
        },
        "creepsPerMinDeltas": {
          "20-30": 4.4,
          "0-10": 7.1,
          "10-20": 5
        },
        "xpPerMinDeltas": {
          "20-30": 532.8,
          "0-10": 484.1,
          "10-20": 536.8
        },
        "role": "DUO_CARRY",
        "damageTakenPerMinDeltas": {
          "20-30": 849.1,
          "0-10": 233.2,
          "10-20": 787.0999999999999
        }
      },
      "championId": 105
    },
    {
      "stats": {
        "neutralMinionsKilledTeamJungle": 14,
        "visionScore": 14,
        "magicDamageDealtToChampions": 2771,
        "largestMultiKill": 1,
        "totalTimeCrowdControlDealt": 208,
        "longestTimeSpentLiving": 461,
        "perk1Var1": 1619,
        "perk1Var3": 0,
        "perk1Var2": 0,
        "tripleKills": 0,
        "perk5": 8236,
        "perk4": 8234,
        "playerScore9": 0,
        "playerScore8": 0,
        "kills": 8,
        "playerScore1": 0,
        "playerScore0": 0,
        "playerScore3": 0,
        "playerScore2": 0,
        "playerScore5": 0,
        "playerScore4": 0,
        "playerScore7": 0,
        "playerScore6": 0,
        "perk5Var1": 28,
        "perk5Var3": 0,
        "perk5Var2": 0,
        "totalScoreRank": 0,
        "neutralMinionsKilled": 25,
        "damageDealtToTurrets": 7402,
        "physicalDamageDealtToChampions": 17863,
        "damageDealtToObjectives": 18448,
        "perk2Var2": 50,
        "perk2Var3": 0,
        "totalUnitsHealed": 1,
        "perk2Var1": 16,
        "perk4Var1": 13,
        "totalDamageTaken": 27509,
        "perk4Var3": 0,
        "wardsKilled": 0,
        "largestCriticalStrike": 1033,
        "largestKillingSpree": 4,
        "quadraKills": 0,
        "magicDamageDealt": 20137,
        "firstBloodAssist": false,
        "item2": 3508,
        "item3": 3006,
        "item0": 3031,
        "item1": 3087,
        "item6": 3340,
        "item4": 3086,
        "item5": 0,
        "perk1": 9111,
        "perk0": 8005,
        "perk3": 8014,
        "perk2": 9104,
        "perk3Var3": 0,
        "perk3Var2": 0,
        "perk3Var1": 390,
        "damageSelfMitigated": 14813,
        "magicalDamageTaken": 11378,
        "perk0Var2": 1263,
        "firstInhibitorKill": false,
        "trueDamageTaken": 536,
        "assists": 10,
        "perk4Var2": 0,
        "goldSpent": 12480,
        "trueDamageDealt": 4300,
        "participantId": 10,
        "physicalDamageDealt": 152855,
        "sightWardsBoughtInGame": 0,
        "totalDamageDealtToChampions": 20727,
        "physicalDamageTaken": 15595,
        "totalPlayerScore": 0,
        "win": true,
        "objectivePlayerScore": 0,
        "totalDamageDealt": 177293,
        "neutralMinionsKilledEnemyJungle": 2,
        "deaths": 8,
        "wardsPlaced": 7,
        "perkPrimaryStyle": 8000,
        "perkSubStyle": 8200,
        "turretKills": 4,
        "firstBloodKill": false,
        "trueDamageDealtToChampions": 92,
        "goldEarned": 13089,
        "killingSprees": 1,
        "unrealKills": 0,
        "firstTowerAssist": false,
        "firstTowerKill": false,
        "champLevel": 16,
        "doubleKills": 0,
        "inhibitorKills": 0,
        "firstInhibitorAssist": true,
        "perk0Var1": 1980,
        "combatPlayerScore": 0,
        "perk0Var3": 716,
        "visionWardsBoughtInGame": 0,
        "pentaKills": 0,
        "totalHeal": 5892,
        "totalMinionsKilled": 165,
        "timeCCingOthers": 7
      },
      "spell1Id": 4,
      "participantId": 10,
      "highestAchievedSeasonTier": "UNRANKED",
      "spell2Id": 12,
      "teamId": 200,
      "timeline": {
        "lane": "TOP",
        "participantId": 10,
        "goldPerMinDeltas": {
          "20-30": 637.7,
          "0-10": 191.7,
          "10-20": 421.9
        },
        "creepsPerMinDeltas": {
          "20-30": 7.2,
          "0-10": 3.8,
          "10-20": 5.5
        },
        "xpPerMinDeltas": {
          "20-30": 593.5,
          "0-10": 312.6,
          "10-20": 574.8
        },
        "role": "DUO_SUPPORT",
        "damageTakenPerMinDeltas": {
          "20-30": 1241.3,
          "0-10": 620.5,
          "10-20": 889.1
        }
      },
      "championId": 23
    }
  ],
  "gameDuration": 1813,
  "gameCreation": 1527008538346
}